[api-updater (non-obsolete-error-filter)] 7/30/2021 2:59:35 PM : Starting /home/dahlterm/.local/bin/unity/2020.3.15f1/Editor/Data/Tools/ScriptUpdater/APIUpdater.NonObsoleteApiUpdaterDetector.exe
[api-updater (non-obsolete-error-filter)] 
----------------------------------
jit/startup time      : 80.132ms
moved types parse time: 39ms
candidates parse time : 0ms
C# parse time         : 166ms
candidates check time : 30ms
console write time    : 0ms

